[
  { "name": "infiniterandom", "path": "maps/infiniterandom/map.js" },
  { "name": "infiniterandomhard", "path": "maps/infiniterandomhard/map.js" },
  { "name": "jumppaddemo", "path": "maps/jumppaddemo/map.js" },
  { "name": "Distrion & Electro-Light - Rubik", "path": "maps/rubik/map.js" }
]
